{
    "$schema": "http://json-schema.org/draft-04/schema#",
    "definitions": {},
    "id": "https://bitbucket.org/digitalinstitute/cloudviz-json-schema/raw/master/config.schema.json",
    "properties": {
        "filter": {
            "id": "/properties/filter",
            "type": "string"
        },
        "id": {
            "id": "/properties/id",
            "type": "string"
        },
        "importScript": {
            "id": "/properties/importScript",
            "type": "string"
        },
        "importVersion": {
            "id": "/properties/importVersion",
            "type": "null"
        },
        "model": {
            "id": "/properties/model",
            "properties": {
                "filename": {
                    "id": "/properties/model/properties/filename",
                    "type": "string"
                },
                "id": {
                    "id": "/properties/model/properties/id",
                    "type": "string"
                }
            },
            "type": "object"
        },
        "modelVersion": {
            "id": "/properties/modelVersion",
            "type": "null"
        },
        "renderType": {
            "id": "/properties/renderType",
            "properties": {
                "engine": {
                    "id": "/properties/renderType/properties/engine",
                    "type": "string"
                },
                "executable": {
                    "id": "/properties/renderType/properties/executable",
                    "type": "string"
                },
                "name": {
                    "id": "/properties/renderType/properties/name",
                    "type": "string"
                },
                "settings": {
                    "id": "/properties/renderType/properties/settings",
                    "properties": {
                        "samples": {
                            "id": "/properties/renderType/properties/settings/properties/samples",
                            "type": "integer"
                        }
                    },
                    "type": "object"
                }
            },
            "type": "object"
        },
        "resolution": {
            "id": "/properties/resolution",
            "properties": {
                "name": {
                    "id": "/properties/resolution/properties/name",
                    "type": "string"
                },
                "x": {
                    "id": "/properties/resolution/properties/x",
                    "type": "integer"
                },
                "y": {
                    "id": "/properties/resolution/properties/y",
                    "type": "integer"
                }
            },
            "type": "object"
        },
        "theme": {
            "id": "/properties/theme",
            "type": "string"
        },
        "uiceVersion": {
            "id": "/properties/uiceVersion",
            "type": "null"
        },
        "use_border": {
            "id": "/properties/use_border",
            "type": "boolean"
        }
    },
    "required": [
        "id",
        "config",
        "status"
    ],
    "type": "object"
}
